Linear modelling of soil temperature effects on root lesion nematode population densities in R
…
Packages

Using the tidyverse, (2017) package simplifies the libraries used in this work. It is a collection of packages designed to work together for data science, https://www.tidyverse.org/. The tidyverse includes, readr (2017), used to import the data; tidyr (2018), used to format the data; dplyr (2017), used to subset the data; and ggplot2 (2016), used for visualising the data and model fits. viridis (2018) is a selection of colour pallets that are widely accessible for people with colour-blindness and printing in black and white.

The following code chunk checks first to see if you have tidyverse, viridis and hrbrthemes installed, if not, it will automatically install them and then load them. Then set the default theme for all graphs to theme_ipsum_rc.

Data Wrangling

The data are located in the data sub-folder. Import the data using read_csv() function from readr and view them.

nema <- read_csv("data/Nematode_Data.csv")

nema

# A tibble: 24 x 9
   Weeks  Days Temperature Degree_days Unplanted Gatcher GS50a Potam
   <dbl> <dbl>       <dbl>       <dbl>     <dbl>   <dbl> <dbl> <dbl>
 1     8    56        15           280      5.75    6.77  6.69  7.61
 2     8    56        20           560      5.92    9.51  7.42  9.28
 3     8    56        22.5         700      6.38    9.96  8.21  9.02
 4     8    56        25           840      6.51    9.35  8.25  9.73
 5    10    70        15           350      5.85    7.44  6.04  5.97
 6    10    70        20           700      6.16   10.3   8.91 10.3 
 7    10    70        22.5         875      6.19   10.4   9.18 10.7 
 8    10    70        25          1050      6.36   10.6   9.04 10.5 
 9    12    84        15           420      5.76    9.93  8.19  8.74
10    12    84        20           840      6.98   11.7   9.85 11.3 
# … with 14 more rows, and 1 more variable: Suneca <dbl>
…
Log*, log(), nematode population in a susceptible wheat cultivar

* For an exploration into the reasons why the data were transformed using the natural log log(), see the [Exploring Why the Data Were Log Transformed] in the [Bonus Material] section

Wide to Long Data

You can see that each of the varieties have their own column in the original data format, this is commonly called wide data. Wide data are commonly found in spreadsheets but do not lend themselves easily to data analysis, modelling and visualisation. To make it easier to do these things it is common to convert the data from wide to long format, commonly referred to as tidying, when using R. The advantage of a tidy dataset is that it is easy to manipulate, model and visualize, and always has a specific structure where each variable is a column, each observation is a row, and each type of observational unit is a table (Wickham 2014).

In order to use ggplot2 for visualising the data, they need to be converted from wide to long. Using gather() from the tidyr package to convert from wide to long format where the varieties are all listed in a single column, Variety.

nema_long <- nema %>% gather(Variety, Log_pop, Unplanted:Suneca)

nema_long

# A tibble: 120 x 6
   Weeks  Days Temperature Degree_days Variety   Log_pop
   <dbl> <dbl>       <dbl>       <dbl> <chr>       <dbl>
 1     8    56        15           280 Unplanted    5.75
 2     8    56        20           560 Unplanted    5.92
 3     8    56        22.5         700 Unplanted    6.38
 4     8    56        25           840 Unplanted    6.51
 5    10    70        15           350 Unplanted    5.85
 6    10    70        20           700 Unplanted    6.16
 7    10    70        22.5         875 Unplanted    6.19
 8    10    70        25          1050 Unplanted    6.36
 9    12    84        15           420 Unplanted    5.76
10    12    84        20           840 Unplanted    6.98
# … with 110 more rows
…
